blinker==1.6.2
click==8.1.7
colorama==0.4.6
Flask==2.3.3
Flask-SQLAlchemy==3.1.1
greenlet==2.0.2
itsdangerous==2.1.2
Jinja2==3.1.2
MarkupSafe==2.1.3
psycopg2==2.9.7
pypng==0.20220715.0
qrcode==7.4.2
six==1.16.0
SQLAlchemy==2.0.20
transliterate==1.10.2
typing_extensions==4.7.1
Werkzeug==2.3.7
